<svg xmlns="http://www.w3.org/2000/svg" viewBox="0 0 260.31 231.36">
  <defs>
    <style>
      .cls-1 {
        fill: #e2e2e2;
      }

      .cls-2, .cls-3, .cls-5 {
        fill: none;
        stroke-miterlimit: 10;
      }

      .cls-2, .cls-3 {
        stroke: #afafaf;
      }

      .cls-2 {
        stroke-width: 3px;
      }

      .cls-3 {
        stroke-width: 5px;
      }

      .cls-4 {
        fill: #afafaf;
      }

      .cls-5 {
        stroke: #c9c8c8;
      }
    </style>
  </defs>
  <title>Записи</title>
  <g id="Слой_2" data-name="Слой 2">
    <g id="Слой_1-2" data-name="Слой 1">
      <g id="Новости_блог_акции" data-name="Новости / блог / акции">
        <g>
          <g>
            <rect class="cls-1" y="0.45" width="70.6" height="102.84" rx="5.37" ry="5.37"/>
            <g>
              <line class="cls-2" x1="4.15" y1="97.1" x2="28.83" y2="97.1"/>
              <g>
                <line class="cls-3" x1="4.15" y1="54.95" x2="38" y2="54.95"/>
                <line class="cls-3" x1="41.63" y1="54.95" x2="66" y2="54.95"/>
              </g>
              <g>
                <line class="cls-2" x1="4.15" y1="67.06" x2="56.71" y2="67.06"/>
                <line class="cls-2" x1="4.15" y1="83.6" x2="47.8" y2="83.6"/>
                <line class="cls-2" x1="4.15" y1="75.35" x2="66" y2="75.35"/>
              </g>
            </g>
            <g>
              <path class="cls-4" d="M64.93,4.29H5.22a1,1,0,0,0-1.07.87v38.1a1,1,0,0,0,1.07.87H64.93A1,1,0,0,0,66,43.25V5.15A1,1,0,0,0,64.93,4.29Zm-1.07,38.1H6.28V6H63.87Z"/>
              <path class="cls-4" d="M21.21,21.42a5.77,5.77,0,0,0,5.94-5.57,5.77,5.77,0,0,0-5.94-5.57,5.77,5.77,0,0,0-5.94,5.57A5.77,5.77,0,0,0,21.21,21.42Zm0-9.14A3.7,3.7,0,0,1,25,15.86a3.7,3.7,0,0,1-3.81,3.57,3.7,3.7,0,0,1-3.81-3.57A3.7,3.7,0,0,1,21.21,12.29Z"/>
              <path class="cls-4" d="M11.61,39.29a1.11,1.11,0,0,0,.7-.25l17.4-14.36L40.7,35a1.12,1.12,0,0,0,1.51,0,1,1,0,0,0,0-1.41l-5.13-4.81L46.87,18.7,58.88,29A1.12,1.12,0,0,0,60.39,29a1,1,0,0,0-.07-1.41l-12.8-11a1.14,1.14,0,0,0-.77-.26,1.1,1.1,0,0,0-.74.33L35.57,27.34,30.52,22.6a1.12,1.12,0,0,0-1.46,0l-18.15,15a1,1,0,0,0-.1,1.41A1.1,1.1,0,0,0,11.61,39.29Z"/>
            </g>
          </g>
          <g>
            <rect class="cls-1" x="94.69" width="70.6" height="102.84" rx="5.37" ry="5.37"/>
            <g>
              <line class="cls-2" x1="98.84" y1="96.65" x2="123.52" y2="96.65"/>
              <g>
                <line class="cls-3" x1="98.84" y1="54.51" x2="132.69" y2="54.51"/>
                <line class="cls-3" x1="136.31" y1="54.51" x2="160.69" y2="54.51"/>
              </g>
              <g>
                <line class="cls-2" x1="98.84" y1="66.62" x2="151.4" y2="66.62"/>
                <line class="cls-2" x1="98.84" y1="83.15" x2="142.49" y2="83.15"/>
                <line class="cls-2" x1="98.84" y1="74.9" x2="160.69" y2="74.9"/>
              </g>
            </g>
            <g>
              <path class="cls-4" d="M159.62,3.84H99.9a1,1,0,0,0-1.07.87v38.1a1,1,0,0,0,1.07.87h59.72a1,1,0,0,0,1.07-.87V4.71A1,1,0,0,0,159.62,3.84Zm-1.07,38.1H101V5.57h57.58Z"/>
              <path class="cls-4" d="M115.9,21a5.77,5.77,0,0,0,5.94-5.57,6,6,0,0,0-11.88,0A5.77,5.77,0,0,0,115.9,21Zm0-9.14a3.7,3.7,0,0,1,3.81,3.57,3.81,3.81,0,0,1-7.61,0A3.7,3.7,0,0,1,115.9,11.84Z"/>
              <path class="cls-4" d="M106.3,38.84a1.11,1.11,0,0,0,.7-.25l17.4-14.36,11,10.3a1.12,1.12,0,0,0,1.51,0,1,1,0,0,0,0-1.41l-5.13-4.81,9.79-10.05,12,10.32a1.12,1.12,0,0,0,1.51-.06A1,1,0,0,0,155,27.1l-12.8-11a1.14,1.14,0,0,0-.77-.26,1.1,1.1,0,0,0-.74.33L130.26,26.89l-5.06-4.74a1.12,1.12,0,0,0-1.46,0l-18.15,15a1,1,0,0,0-.1,1.41A1.1,1.1,0,0,0,106.3,38.84Z"/>
            </g>
          </g>
          <g>
            <rect class="cls-1" x="189.43" y="0.45" width="70.6" height="102.84" rx="5.37" ry="5.37"/>
            <g>
              <line class="cls-2" x1="193.58" y1="97.1" x2="218.26" y2="97.1"/>
              <g>
                <line class="cls-3" x1="193.58" y1="54.95" x2="227.43" y2="54.95"/>
                <line class="cls-3" x1="231.05" y1="54.95" x2="255.43" y2="54.95"/>
              </g>
              <g>
                <line class="cls-2" x1="193.58" y1="67.06" x2="246.14" y2="67.06"/>
                <line class="cls-2" x1="193.58" y1="83.6" x2="237.23" y2="83.6"/>
                <line class="cls-2" x1="193.58" y1="75.35" x2="255.43" y2="75.35"/>
              </g>
            </g>
            <g>
              <path class="cls-4" d="M254.36,4.29H194.64a1,1,0,0,0-1.07.87v38.1a1,1,0,0,0,1.07.87h59.72a1,1,0,0,0,1.07-.87V5.15A1,1,0,0,0,254.36,4.29Zm-1.07,38.1H195.71V6h57.58Z"/>
              <path class="cls-4" d="M210.64,21.42a5.77,5.77,0,0,0,5.94-5.57,6,6,0,0,0-11.88,0A5.77,5.77,0,0,0,210.64,21.42Zm0-9.14a3.7,3.7,0,0,1,3.81,3.57,3.81,3.81,0,0,1-7.61,0A3.7,3.7,0,0,1,210.64,12.29Z"/>
              <path class="cls-4" d="M201,39.29a1.11,1.11,0,0,0,.7-.25l17.4-14.36,11,10.3a1.12,1.12,0,0,0,1.51,0,1,1,0,0,0,0-1.41l-5.13-4.81L236.3,18.7l12,10.32a1.12,1.12,0,0,0,1.51-.06,1,1,0,0,0-.07-1.41l-12.8-11a1.14,1.14,0,0,0-.77-.26,1.1,1.1,0,0,0-.74.33L225,27.34l-5.06-4.74a1.12,1.12,0,0,0-1.46,0l-18.15,15a1,1,0,0,0-.1,1.41A1.1,1.1,0,0,0,201,39.29Z"/>
            </g>
          </g>
        </g>
        <g>
          <g>
            <rect class="cls-1" x="0.28" y="108.51" width="70.6" height="102.84" rx="5.37" ry="5.37"/>
            <g>
              <line class="cls-2" x1="4.43" y1="205.16" x2="29.12" y2="205.16"/>
              <g>
                <line class="cls-3" x1="4.43" y1="163.02" x2="38.28" y2="163.02"/>
                <line class="cls-3" x1="41.91" y1="163.02" x2="66.28" y2="163.02"/>
              </g>
              <g>
                <line class="cls-2" x1="4.43" y1="175.13" x2="56.99" y2="175.13"/>
                <line class="cls-2" x1="4.43" y1="191.66" x2="48.08" y2="191.66"/>
                <line class="cls-2" x1="4.43" y1="183.41" x2="66.28" y2="183.41"/>
              </g>
            </g>
            <g>
              <path class="cls-4" d="M65.22,112.35H5.5a1,1,0,0,0-1.07.87v38.1a1,1,0,0,0,1.07.87H65.22a1,1,0,0,0,1.07-.87v-38.1A1,1,0,0,0,65.22,112.35Zm-1.07,38.1H6.57V114.08H64.15Z"/>
              <path class="cls-4" d="M21.5,129.49a5.58,5.58,0,1,0,0-11.14,5.58,5.58,0,1,0,0,11.14Zm0-9.14a3.58,3.58,0,1,1,0,7.14,3.58,3.58,0,1,1,0-7.14Z"/>
              <path class="cls-4" d="M11.9,147.35a1.11,1.11,0,0,0,.7-.25L30,132.74,41,143a1.12,1.12,0,0,0,1.51,0,1,1,0,0,0,0-1.41l-5.13-4.81,9.79-10.05,12,10.32a1.12,1.12,0,0,0,1.51-.06,1,1,0,0,0-.07-1.41l-12.8-11a1.14,1.14,0,0,0-.77-.26,1.1,1.1,0,0,0-.74.33L35.86,135.4l-5.06-4.74a1.12,1.12,0,0,0-1.46,0l-18.15,15a1,1,0,0,0-.1,1.41A1.1,1.1,0,0,0,11.9,147.35Z"/>
            </g>
          </g>
          <g>
            <rect class="cls-1" x="94.97" y="108.06" width="70.6" height="102.84" rx="5.37" ry="5.37"/>
            <g>
              <line class="cls-2" x1="99.12" y1="204.72" x2="123.8" y2="204.72"/>
              <g>
                <line class="cls-3" x1="99.12" y1="162.57" x2="132.97" y2="162.57"/>
                <line class="cls-3" x1="136.6" y1="162.57" x2="160.97" y2="162.57"/>
              </g>
              <g>
                <line class="cls-2" x1="99.12" y1="174.68" x2="151.68" y2="174.68"/>
                <line class="cls-2" x1="99.12" y1="191.22" x2="142.77" y2="191.22"/>
                <line class="cls-2" x1="99.12" y1="182.97" x2="160.97" y2="182.97"/>
              </g>
            </g>
            <g>
              <path class="cls-4" d="M159.9,111.9H100.19a1,1,0,0,0-1.07.87v38.1a1,1,0,0,0,1.07.87H159.9a1,1,0,0,0,1.07-.87v-38.1A1,1,0,0,0,159.9,111.9ZM158.84,150H101.25V113.64h57.58Z"/>
              <path class="cls-4" d="M116.18,129a5.58,5.58,0,1,0-5.94-5.57A5.77,5.77,0,0,0,116.18,129Zm0-9.14a3.58,3.58,0,1,1-3.81,3.57A3.7,3.7,0,0,1,116.18,119.9Z"/>
              <path class="cls-4" d="M106.58,146.9a1.11,1.11,0,0,0,.7-.25l17.4-14.36,11,10.3a1.12,1.12,0,0,0,1.51,0,1,1,0,0,0,0-1.41l-5.13-4.81,9.79-10.05,12,10.32a1.12,1.12,0,0,0,1.51-.06,1,1,0,0,0-.07-1.41l-12.8-11a1.14,1.14,0,0,0-.77-.26,1.1,1.1,0,0,0-.74.33L130.54,135l-5.06-4.74a1.12,1.12,0,0,0-1.46,0l-18.15,15a1,1,0,0,0-.1,1.41A1.1,1.1,0,0,0,106.58,146.9Z"/>
            </g>
          </g>
          <g>
            <rect class="cls-1" x="189.71" y="108.51" width="70.6" height="102.84" rx="5.37" ry="5.37"/>
            <g>
              <line class="cls-2" x1="193.86" y1="205.16" x2="218.54" y2="205.16"/>
              <g>
                <line class="cls-3" x1="193.86" y1="163.02" x2="227.71" y2="163.02"/>
                <line class="cls-3" x1="231.34" y1="163.02" x2="255.71" y2="163.02"/>
              </g>
              <g>
                <line class="cls-2" x1="193.86" y1="175.13" x2="246.42" y2="175.13"/>
                <line class="cls-2" x1="193.86" y1="191.66" x2="237.51" y2="191.66"/>
                <line class="cls-2" x1="193.86" y1="183.41" x2="255.71" y2="183.41"/>
              </g>
            </g>
            <g>
              <path class="cls-4" d="M254.64,112.35H194.93a1,1,0,0,0-1.07.87v38.1a1,1,0,0,0,1.07.87h59.72a1,1,0,0,0,1.07-.87v-38.1A1,1,0,0,0,254.64,112.35Zm-1.07,38.1H196V114.08h57.58Z"/>
              <path class="cls-4" d="M210.92,129.49a5.58,5.58,0,1,0-5.94-5.57A5.77,5.77,0,0,0,210.92,129.49Zm0-9.14a3.58,3.58,0,1,1-3.81,3.57A3.7,3.7,0,0,1,210.92,120.35Z"/>
              <path class="cls-4" d="M201.33,147.35a1.11,1.11,0,0,0,.7-.25l17.4-14.36,11,10.3a1.12,1.12,0,0,0,1.51,0,1,1,0,0,0,0-1.41l-5.13-4.81,9.79-10.05,12,10.32a1.12,1.12,0,0,0,1.51-.06,1,1,0,0,0-.07-1.41l-12.8-11a1.14,1.14,0,0,0-.77-.26,1.1,1.1,0,0,0-.74.33L225.28,135.4l-5.06-4.74a1.12,1.12,0,0,0-1.46,0l-18.15,15a1,1,0,0,0-.1,1.41A1.1,1.1,0,0,0,201.33,147.35Z"/>
            </g>
          </g>
        </g>
        <g>
          <rect class="cls-5" x="118.4" y="224.47" width="6.39" height="6.39" rx="0.77" ry="0.77"/>
          <rect class="cls-5" x="127.41" y="224.47" width="6.39" height="6.39" rx="0.77" ry="0.77"/>
          <rect class="cls-5" x="136.41" y="224.47" width="6.39" height="6.39" rx="0.77" ry="0.77"/>
          <rect class="cls-5" x="90.6" y="224.47" width="25" height="6.39" rx="0.77" ry="0.77"/>
          <rect class="cls-5" x="145.78" y="224.47" width="25" height="6.39" rx="0.77" ry="0.77"/>
        </g>
      </g>
    </g>
  </g>
</svg>
