<svg xmlns="http://www.w3.org/2000/svg" viewBox="0 0 259.77 10.75">
  <defs>
    <style>
      .cls-1 {
        fill: #fff;
      }

      .cls-2 {
        fill: none;
        stroke: #afafaf;
        stroke-miterlimit: 10;
        stroke-width: 3px;
      }

      .cls-3 {
        fill: #e2e2e2;
      }
    </style>
  </defs>
  <title>Сортировка</title>
  <g id="Слой_2" data-name="Слой 2">
    <g id="Слой_1-2" data-name="Слой 1">
      <g id="Сортировка">
        <g>
          <g>
            <rect class="cls-1" width="259.77" height="10.75" rx="2.95" ry="2.95"/>
            <line class="cls-2" x1="127.28" y1="5.37" x2="168.06" y2="5.37"/>
          </g>
          <g>
            <rect class="cls-3" x="173.02" width="86.75" height="10.75" rx="2.95" ry="2.95"/>
            <line class="cls-2" x1="176.7" y1="5.37" x2="212.8" y2="5.37"/>
          </g>
        </g>
      </g>
    </g>
  </g>
</svg>
