<svg xmlns="http://www.w3.org/2000/svg" viewBox="0 0 260.11 59.84">
  <defs>
    <style>
      .cls-1, .cls-2 {
        fill: none;
        stroke: #c9c8c8;
        stroke-miterlimit: 10;
      }

      .cls-1 {
        stroke-width: 3px;
      }

      .cls-2 {
        stroke-width: 2px;
      }

      .cls-3 {
        fill: #c9c8c8;
      }
    </style>
  </defs>
  <title>Команда</title>
  <g id="Слой_2" data-name="Слой 2">
    <g id="Слой_1-2" data-name="Слой 1">
      <g id="Команда">
        <g>
          <g>
            <g>
              <line class="cls-1" x1="15.88" y1="51.84" x2="41.41" y2="51.84"/>
              <line class="cls-1" x1="12.73" y1="51.84" y2="51.84"/>
              <line class="cls-2" x1="1.36" y1="58.84" x2="39.99" y2="58.84"/>
            </g>
            <g>
              <path class="cls-3" d="M20.68,19.36c4.4,0,8-4.33,8-9.68S27.47,0,20.68,0s-8,4.33-8,9.68S16.27,19.36,20.68,19.36Z"/>
              <path class="cls-3" d="M5.62,34.14c0-.33,0-.09,0,0Z"/>
              <path class="cls-3" d="M35.73,34.39c0-.09,0-.62,0,0Z"/>
              <path class="cls-3" d="M35.71,33.75c-.15-9.31-1.36-12-10.67-13.65a5.58,5.58,0,0,1-4.36,1.67,5.58,5.58,0,0,1-4.36-1.67C7.11,21.76,5.82,24.38,5.65,33.45c0,.74,0,.78,0,.69,0,.16,0,.46,0,1,0,0,2.22,4.47,15.05,4.47s15.05-4.47,15.05-4.47c0-.33,0-.57,0-.72A6,6,0,0,1,35.71,33.75Z"/>
            </g>
          </g>
          <g>
            <g>
              <line class="cls-1" x1="234.57" y1="51.84" x2="260.11" y2="51.84"/>
              <line class="cls-1" x1="231.42" y1="51.84" x2="218.7" y2="51.84"/>
              <line class="cls-2" x1="220.06" y1="58.84" x2="258.68" y2="58.84"/>
            </g>
            <g>
              <path class="cls-3" d="M239.37,19.36c4.4,0,8-4.33,8-9.68S246.17,0,239.37,0s-8,4.33-8,9.68S235,19.36,239.37,19.36Z"/>
              <path class="cls-3" d="M224.32,34.14c0-.33,0-.09,0,0Z"/>
              <path class="cls-3" d="M254.42,34.39c0-.09,0-.62,0,0Z"/>
              <path class="cls-3" d="M254.41,33.75c-.15-9.31-1.36-12-10.67-13.65a6.54,6.54,0,0,1-8.73,0c-9.21,1.66-10.5,4.28-10.67,13.34,0,.74,0,.78,0,.69,0,.16,0,.46,0,1,0,0,2.22,4.47,15.05,4.47s15.05-4.47,15.05-4.47c0-.33,0-.57,0-.72A6,6,0,0,1,254.41,33.75Z"/>
            </g>
          </g>
          <g>
            <g>
              <line class="cls-1" x1="125.23" y1="51.84" x2="150.76" y2="51.84"/>
              <line class="cls-1" x1="122.07" y1="51.84" x2="109.35" y2="51.84"/>
              <line class="cls-2" x1="110.71" y1="58.84" x2="149.34" y2="58.84"/>
            </g>
            <g>
              <path class="cls-3" d="M130,19.36c4.4,0,8-4.33,8-9.68S136.82,0,130,0s-8,4.33-8,9.68S125.62,19.36,130,19.36Z"/>
              <path class="cls-3" d="M115,34.14c0-.33,0-.09,0,0Z"/>
              <path class="cls-3" d="M145.07,34.39c0-.09,0-.62,0,0Z"/>
              <path class="cls-3" d="M145.06,33.75c-.15-9.31-1.36-12-10.67-13.65a6.54,6.54,0,0,1-8.73,0c-9.21,1.66-10.5,4.28-10.67,13.34,0,.74,0,.78,0,.69,0,.16,0,.46,0,1,0,0,2.22,4.47,15.05,4.47s15.05-4.47,15.05-4.47c0-.33,0-.57,0-.72A6,6,0,0,1,145.06,33.75Z"/>
            </g>
          </g>
        </g>
      </g>
    </g>
  </g>
</svg>
