<svg xmlns="http://www.w3.org/2000/svg" viewBox="0 0 260.4 63.41">
  <defs>
    <style>
      .cls-1, .cls-2 {
        fill: none;
        stroke: #c9c8c8;
        stroke-miterlimit: 10;
      }

      .cls-2 {
        stroke-width: 3px;
      }
    </style>
  </defs>
  <title>Преимущества</title>
  <g id="Слой_2" data-name="Слой 2">
    <g id="Слой_1-2" data-name="Слой 1">
      <g id="Преимущества">
        <g>
          <g>
            <polygon class="cls-1" points="19.88 1.13 25.69 12.91 38.69 14.79 29.29 23.96 31.51 36.9 19.88 30.79 8.26 36.9 10.48 23.96 1.07 14.79 14.07 12.91 19.88 1.13"/>
            <g>
              <line class="cls-2" x1="2.32" y1="48.16" x2="37.44" y2="48.16"/>
              <line class="cls-2" x1="4.32" y1="55.16" x2="35.44" y2="55.16"/>
              <line class="cls-2" x1="0.57" y1="61.91" x2="39.19" y2="61.91"/>
            </g>
          </g>
          <g>
            <polygon class="cls-1" points="130.2 1.13 136.01 12.91 149.01 14.79 139.61 23.96 141.83 36.9 130.2 30.79 118.58 36.9 120.8 23.96 111.39 14.79 124.39 12.91 130.2 1.13"/>
            <g>
              <line class="cls-2" x1="112.64" y1="48.16" x2="147.77" y2="48.16"/>
              <line class="cls-2" x1="114.64" y1="55.16" x2="145.77" y2="55.16"/>
              <line class="cls-2" x1="110.89" y1="61.91" x2="149.52" y2="61.91"/>
            </g>
          </g>
          <g>
            <polygon class="cls-1" points="240.52 1.13 246.34 12.91 259.33 14.79 249.93 23.96 252.15 36.9 240.52 30.79 228.9 36.9 231.12 23.96 221.72 14.79 234.71 12.91 240.52 1.13"/>
            <g>
              <line class="cls-2" x1="222.96" y1="48.16" x2="258.09" y2="48.16"/>
              <line class="cls-2" x1="224.96" y1="55.16" x2="256.09" y2="55.16"/>
              <line class="cls-2" x1="221.21" y1="61.91" x2="259.84" y2="61.91"/>
            </g>
          </g>
        </g>
      </g>
    </g>
  </g>
</svg>
