<svg xmlns="http://www.w3.org/2000/svg" viewBox="0 0 300 46.94">
  <defs>
    <style>
      .cls-1, .cls-3 {
        fill: #fff;
      }

      .cls-2 {
        fill: none;
      }

      .cls-2, .cls-3 {
        stroke: #afafaf;
        stroke-miterlimit: 10;
      }

      .cls-4 {
        font-size: 9px;
        font-family: Comfortaa, Comfortaa;
      }

      .cls-5 {
        letter-spacing: -0.02em;
      }

      .cls-6 {
        fill: #c9c8c8;
      }
    </style>
  </defs>
  <title>Лого по центру</title>
  <g id="Слой_2" data-name="Слой 2">
    <g id="Слой_1-2" data-name="Слой 1">
      <g id="Лого_в_центре" data-name="Лого в центре">
        <rect class="cls-1" y="0.5" width="300" height="30"/>
        <line class="cls-2" y1="30.5" x2="300" y2="30.5"/>
        <circle class="cls-3" cx="150" cy="23.47" r="22.97"/>
        <text class="cls-4" transform="translate(130.23 26.42)">Ло<tspan class="cls-5" x="11.95" y="0">г</tspan><tspan x="15.63" y="0">отип</tspan></text>
        <rect class="cls-6" x="225.75" y="14.25" width="27.5" height="8"/>
        <rect class="cls-6" x="191" y="14.25" width="27.5" height="8"/>
        <rect class="cls-6" x="83.5" y="14.25" width="27.5" height="8"/>
        <rect class="cls-6" x="48.75" y="14.25" width="27.5" height="8"/>
      </g>
    </g>
  </g>
</svg>
